<?xml version="1.0" encoding="utf-8"?>
<!-- Generator: Adobe Illustrator 19.1.0, SVG Export Plug-In . SVG Version: 6.00 Build 0)  -->
<svg version="1.1" id="Layer_1" xmlns="http://www.w3.org/2000/svg" xmlns:xlink="http://www.w3.org/1999/xlink" x="0px" y="0px"
	 viewBox="0 0 120 120" style="enable-background:new 0 0 120 120;" xml:space="preserve">
<style type="text/css">
	.st0{clip-path:url(#SVGID_2_);}
	.st1{clip-path:url(#SVGID_4_);fill:#D8D8D8;}
	.st2{clip-path:url(#SVGID_6_);}
	.st3{clip-path:url(#SVGID_8_);fill:#D8D8D8;}
</style>
<g>
	<g>
		<defs>
			<path id="SVGID_1_" d="M60,4.2C29.3,4.2,4.5,29.3,4.5,60c0,30.7,24.8,55.8,55.5,55.8c30.7,0,55.5-25.1,55.5-55.8
				C115.5,29.3,90.7,4.2,60,4.2 M60,102.2c-23.3,0-42.1-19-42.1-42.2c0-23.3,18.8-42.2,42-42.2c23.3,0,42.1,19,42.1,42.2
				C102,83.3,83.1,102.2,60,102.2"/>
		</defs>
		<clipPath id="SVGID_2_">
			<use xlink:href="#SVGID_1_"  style="overflow:visible;"/>
		</clipPath>
		<g class="st0">
			<defs>
				<rect id="SVGID_3_" x="-625.5" y="-1365.8" width="2880" height="2714"/>
			</defs>
			<clipPath id="SVGID_4_">
				<use xlink:href="#SVGID_3_"  style="overflow:visible;"/>
			</clipPath>
			<rect x="-5.5" y="-5.8" class="st1" width="131" height="131.5"/>
		</g>
	</g>
	<g>
		<defs>
			<polygon id="SVGID_5_" points="65.3,26.5 54.1,26.5 54.1,65.6 54.2,65.6 54.2,65.6 76.5,87.9 84.3,80 65.3,61 			"/>
		</defs>
		<clipPath id="SVGID_6_">
			<use xlink:href="#SVGID_5_"  style="overflow:visible;"/>
		</clipPath>
		<g class="st2">
			<defs>
				<rect id="SVGID_7_" x="-625.5" y="-1365.8" width="2880" height="2714"/>
			</defs>
			<clipPath id="SVGID_8_">
				<use xlink:href="#SVGID_7_"  style="overflow:visible;"/>
			</clipPath>
			<rect x="44.1" y="16.5" class="st3" width="50.2" height="81.4"/>
		</g>
	</g>
</g>
</svg>
